Spotify rewrapped – dw_eda
…
Update to POSIX

datetime <- as.POSIXct(paste(spotify_data$date, spotify_data$time), format = "%Y-%m-%d %H:%M:%S")
spotify_data$datetime <- datetime

Here we can check that the change was implimented

spotify_data %>%
  select(datetime)

# A tibble: 139,773 × 1
   datetime           
   <dttm>             
 1 2020-06-25 13:29:16
 2 2023-02-06 17:29:01
 3 2018-11-21 04:38:02
 4 2021-06-26 20:02:50
 5 2022-07-11 19:57:59
 6 2021-03-08 18:55:01
 7 2020-04-09 18:23:56
 8 2020-11-29 19:29:37
 9 2022-11-13 23:39:40
10 2021-03-30 01:00:14
# … with 139,763 more rows
…
skipped <- spotify_data %>%
  # select(9:11,17,23) %>%
  # na.omit() %>%
  filter(reason_end == "trackdone") %>%
  mutate(year = year(datetime)) %>%
  group_by(year, track) %>%
  summarise(n = n()) %>%
  top_n(n = 5, wt = n)

`summarise()` has grouped output by 'year'. You can override using the
`.groups` argument.

skipped

# A tibble: 41 × 3
# Groups:   year [7]
    year track                                         n
   <dbl> <chr>                                     <int>
 1  2018 Care                                         38
 2  2018 Clever                                       39
 3  2018 FEEL NOTHING                                 49
 4  2018 Overthinking                                 70
 5  2018 Set Me Free                                  46
 6  2019 Bow Down                                    116
 7  2019 Crop Circles                                 79
 8  2019 Good Things Fall Apart (with Jon Bellion)    73
 9  2019 Head Hunter                                  85
10  2019 We Own The Night                             97
# … with 31 more rows
…
How many tracks do I skip a year?

After seeing how my top 5 changed when i filtered out by songs that finished. I was curious to see how many songs I skip every year.

skipped_yearly <- spotify_data %>%
  mutate(year = year(datetime)) %>%
  select(track, reason_end, year) %>%
  na.omit() %>%
  group_by(year, reason_end) %>%
  count()

skipped_yearly

# A tibble: 60 × 3
# Groups:   year, reason_end [60]
    year reason_end                       n
   <dbl> <chr>                        <int>
 1  2018 backbtn                        117
 2  2018 endplay                       1141
 3  2018 fwdbtn                        2678
 4  2018 logout                          63
 5  2018 remote                          28
 6  2018 trackdone                     2969
 7  2018 trackerror                       6
 8  2018 unexpected-exit                  5
 9  2018 unexpected-exit-while-paused   209
10  2018 unknown                          1
# … with 50 more rows
…
